<?xml version="1.0" encoding="utf-8"?>
<!-- Generator: Adobe Illustrator 23.0.0, SVG Export Plug-In . SVG Version: 6.00 Build 0)  -->
<svg version="1.1" id="Layer_1" xmlns="http://www.w3.org/2000/svg" xmlns:xlink="http://www.w3.org/1999/xlink" x="0px" y="0px"
	 viewBox="0 0 311.25 122.83" style="enable-background:new 0 0 311.25 122.83;" xml:space="preserve">
<style type="text/css">
	.st0{fill:url(#SVGID_1_);}
	.st1{fill:#FFCB05;}
	.st2{fill:#231F20;}
</style>
<g>
	<linearGradient id="SVGID_1_" gradientUnits="userSpaceOnUse" x1="4.6108" y1="84.3677" x2="118.2225" y2="38.4656">
		<stop  offset="0" style="stop-color:#FED208"/>
		<stop  offset="0.0506" style="stop-color:#FED312"/>
		<stop  offset="0.1027" style="stop-color:#FED528"/>
		<stop  offset="0.1554" style="stop-color:#FEDA43"/>
		<stop  offset="0.2086" style="stop-color:#FEE263"/>
		<stop  offset="0.2617" style="stop-color:#FDEB85"/>
		<stop  offset="0.2958" style="stop-color:#FDF59D"/>
		<stop  offset="0.4504" style="stop-color:#FCD76B"/>
		<stop  offset="0.6243" style="stop-color:#FABC30"/>
		<stop  offset="0.7084" style="stop-color:#F9B218"/>
		<stop  offset="0.8897" style="stop-color:#F89F1F"/>
		<stop  offset="1" style="stop-color:#F89821"/>
	</linearGradient>
	<polygon class="st0" points="61.42,0 65.67,7.39 71.02,0.76 74.07,8.72 80.4,3.01 82.15,11.35 89.3,6.69 89.73,15.21 97.52,11.73 
		96.61,20.21 104.84,17.99 102.62,26.22 111.1,25.32 107.62,33.1 116.14,33.53 111.48,40.68 119.83,42.44 114.11,48.77 
		122.08,51.81 115.44,57.16 122.83,61.42 115.44,65.67 122.08,71.02 114.11,74.07 119.83,80.4 111.48,82.15 116.14,89.3 
		107.62,89.73 111.1,97.52 102.62,96.61 104.84,104.84 96.61,102.62 97.52,111.1 89.73,107.62 89.3,116.14 82.15,111.48 
		80.4,119.83 74.07,114.11 71.02,122.08 65.67,115.44 61.42,122.83 57.16,115.44 51.81,122.08 48.77,114.11 42.44,119.83 
		40.68,111.48 33.53,116.14 33.1,107.62 25.32,111.1 26.22,102.62 17.99,104.84 20.21,96.61 11.73,97.52 15.21,89.73 6.69,89.3 
		11.35,82.15 3.01,80.4 8.72,74.07 0.76,71.02 7.39,65.67 0,61.42 7.39,57.16 0.76,51.81 8.72,48.77 3.01,42.44 11.35,40.68 
		6.69,33.53 15.21,33.1 11.73,25.32 20.21,26.22 17.99,17.99 26.22,20.21 25.32,11.73 33.1,15.21 33.53,6.69 40.68,11.35 
		42.44,3.01 48.77,8.72 51.81,0.76 57.16,7.39 	"/>
	<g>
		<path class="st1" d="M150.73,31.37V48.2h-3.92l-7.43-8.97v8.97h-4.67V31.37h3.92l7.43,8.97v-8.97H150.73z"/>
		<path class="st1" d="M154.67,39.78c0-5.05,3.97-8.75,9.35-8.75s9.35,3.7,9.35,8.75s-3.97,8.75-9.35,8.75
			S154.67,44.83,154.67,39.78z M168.57,39.78c0-2.91-2-4.81-4.54-4.81c-2.55,0-4.55,1.9-4.55,4.81c0,2.91,2,4.81,4.55,4.81
			C166.57,44.59,168.57,42.69,168.57,39.78z"/>
		<path class="st1" d="M199.28,44.52v3.68h-13.52V31.37h13.2v3.68h-8.49v2.84h7.48v3.56h-7.48v3.08H199.28z"/>
		<path class="st1" d="M213.85,48.2l-3.49-5.22l-3.44,5.22h-5.43l6.13-8.51l-5.87-8.32h5.36l3.37,4.86l3.32-4.86h5.15l-5.87,8.13
			l6.25,8.71H213.85z"/>
		<path class="st1" d="M220.92,39.78c0-5.12,3.92-8.75,9.26-8.75c3.1,0,5.6,1.13,7.24,3.17l-3.03,2.74
			c-1.06-1.28-2.36-1.97-3.97-1.97c-2.77,0-4.69,1.92-4.69,4.81s1.92,4.81,4.69,4.81c1.61,0,2.91-0.7,3.97-1.97l3.03,2.74
			c-1.64,2.04-4.14,3.17-7.24,3.17C224.84,48.54,220.92,44.91,220.92,39.78z"/>
		<path class="st1" d="M240.64,40.7v-9.33h4.76v9.19c0,2.89,1.2,4.04,3.2,4.04c1.97,0,3.17-1.15,3.17-4.04v-9.19h4.69v9.33
			c0,5.03-2.93,7.84-7.91,7.84C243.58,48.54,240.64,45.72,240.64,40.7z"/>
		<path class="st1" d="M259.96,46.69l1.56-3.51c1.49,0.99,3.61,1.66,5.56,1.66c1.97,0,2.74-0.55,2.74-1.37
			c0-2.67-9.57-0.72-9.57-6.97c0-3.01,2.45-5.46,7.46-5.46c2.19,0,4.45,0.5,6.11,1.47l-1.47,3.54c-1.61-0.87-3.2-1.3-4.67-1.3
			c-2,0-2.72,0.67-2.72,1.51c0,2.57,9.55,0.65,9.55,6.85c0,2.93-2.45,5.43-7.46,5.43C264.28,48.54,261.54,47.79,259.96,46.69z"/>
		<path class="st1" d="M291.65,44.52v3.68h-13.52V31.37h13.2v3.68h-8.49v2.84h7.48v3.56h-7.48v3.08H291.65z"/>
		<path class="st1" d="M294.56,46.69l1.56-3.51c1.49,0.99,3.61,1.66,5.55,1.66c1.97,0,2.74-0.55,2.74-1.37
			c0-2.67-9.57-0.72-9.57-6.97c0-3.01,2.45-5.46,7.46-5.46c2.19,0,4.45,0.5,6.11,1.47l-1.47,3.54c-1.61-0.87-3.2-1.3-4.67-1.3
			c-2,0-2.72,0.67-2.72,1.51c0,2.57,9.55,0.65,9.55,6.85c0,2.93-2.45,5.43-7.45,5.43C298.89,48.54,296.15,47.79,294.56,46.69z"/>
		<path class="st1" d="M133.53,70.73l1.56-3.51c1.49,0.99,3.61,1.66,5.55,1.66c1.97,0,2.74-0.55,2.74-1.37
			c0-2.67-9.57-0.72-9.57-6.97c0-3.01,2.45-5.46,7.46-5.46c2.19,0,4.45,0.5,6.11,1.47l-1.47,3.54c-1.61-0.87-3.2-1.3-4.67-1.3
			c-2,0-2.72,0.67-2.72,1.51c0,2.57,9.55,0.65,9.55,6.85c0,2.93-2.45,5.43-7.45,5.43C137.86,72.59,135.12,71.84,133.53,70.73z"/>
		<path class="st1" d="M162.51,68.98h-7.12l-1.32,3.27h-4.86l7.43-16.83h4.69l7.45,16.83h-4.95L162.51,68.98z M161.11,65.47
			l-2.16-5.39l-2.16,5.39H161.11z"/>
		<path class="st1" d="M175.86,59.09v3.7h7.43v3.68h-7.43v5.77h-4.76V55.42h13.2v3.68H175.86z"/>
		<path class="st1" d="M201.01,68.57v3.68H187.5V55.42h13.2v3.68h-8.49v2.84h7.48v3.56h-7.48v3.08H201.01z"/>
		<path class="st1" d="M208.2,59.19h-5.17v-3.78h15.08v3.78h-5.15v13.06h-4.76V59.19z"/>
		<path class="st1" d="M229.46,66.21v6.04h-4.76v-6.11l-6.42-10.73h5.03l3.99,6.69l3.99-6.69h4.62L229.46,66.21z"/>
		<path class="st1" d="M242.69,70.73l1.56-3.51c1.49,0.99,3.61,1.66,5.56,1.66c1.97,0,2.74-0.55,2.74-1.37
			c0-2.67-9.57-0.72-9.57-6.97c0-3.01,2.45-5.46,7.46-5.46c2.19,0,4.45,0.5,6.11,1.47l-1.47,3.54c-1.61-0.87-3.2-1.3-4.67-1.3
			c-2,0-2.72,0.67-2.72,1.51c0,2.57,9.55,0.65,9.55,6.85c0,2.93-2.45,5.43-7.46,5.43C247.02,72.59,244.27,71.84,242.69,70.73z"/>
		<path class="st1" d="M273.9,68.57v3.68h-13.51V55.42h13.2v3.68h-8.49v2.84h7.48v3.56h-7.48v3.08H273.9z"/>
		<path class="st1" d="M288.79,68.98h-7.12l-1.32,3.27h-4.86l7.43-16.83h4.69l7.46,16.83h-4.95L288.79,68.98z M287.39,65.47
			l-2.16-5.39l-2.17,5.39H287.39z"/>
		<path class="st1" d="M297.37,55.42h4.76v13.06h8.03v3.78h-12.79V55.42z"/>
		<path class="st1" d="M133.84,87.88c0-5.05,3.97-8.75,9.35-8.75s9.35,3.7,9.35,8.75s-3.97,8.75-9.35,8.75
			S133.84,92.93,133.84,87.88z M147.74,87.88c0-2.91-2-4.81-4.54-4.81c-2.55,0-4.55,1.9-4.55,4.81c0,2.91,2,4.81,4.55,4.81
			C145.75,92.69,147.74,90.79,147.74,87.88z"/>
		<path class="st1" d="M159.22,83.14v3.7h7.43v3.68h-7.43v5.77h-4.76V79.46h13.2v3.68H159.22z"/>
		<path class="st1" d="M186.12,93.03h-7.12l-1.32,3.27h-4.86l7.43-16.83h4.69l7.46,16.83h-4.95L186.12,93.03z M184.73,89.52
			l-2.16-5.39l-2.17,5.39H184.73z"/>
		<path class="st1" d="M208.32,85.69c0,3.82-2.89,6.21-7.48,6.21h-2.93v4.4h-4.76V79.46h7.7C205.44,79.46,208.32,81.84,208.32,85.69
			z M203.51,85.69c0-1.56-0.99-2.48-2.96-2.48h-2.65v4.93h2.65C202.53,88.15,203.51,87.23,203.51,85.69z"/>
		<path class="st1" d="M225.2,85.69c0,3.82-2.89,6.21-7.48,6.21h-2.93v4.4h-4.76V79.46h7.7C222.32,79.46,225.2,81.84,225.2,85.69z
			 M220.39,85.69c0-1.56-0.99-2.48-2.96-2.48h-2.64v4.93h2.64C219.41,88.15,220.39,87.23,220.39,85.69z"/>
		<path class="st1" d="M234.27,91.83h-2.6v4.47h-4.76V79.46h7.7c4.59,0,7.48,2.38,7.48,6.23c0,2.48-1.2,4.3-3.29,5.31l3.63,5.29
			h-5.1L234.27,91.83z M234.32,83.22h-2.65v4.93h2.65c1.97,0,2.96-0.91,2.96-2.45C237.28,84.13,236.29,83.22,234.32,83.22z"/>
		<path class="st1" d="M243.24,87.88c0-5.05,3.97-8.75,9.36-8.75c5.39,0,9.35,3.7,9.35,8.75s-3.97,8.75-9.35,8.75
			C247.21,96.63,243.24,92.93,243.24,87.88z M257.14,87.88c0-2.91-2-4.81-4.54-4.81c-2.55,0-4.55,1.9-4.55,4.81
			c0,2.91,2,4.81,4.55,4.81C255.14,92.69,257.14,90.79,257.14,87.88z"/>
		<path class="st1" d="M280.35,79.46l-7.21,16.83h-4.69l-7.19-16.83h5.15l4.57,10.97l4.67-10.97H280.35z"/>
		<path class="st1" d="M291.43,93.03h-7.12l-1.32,3.27h-4.86l7.43-16.83h4.69l7.46,16.83h-4.95L291.43,93.03z M290.04,89.52
			l-2.16-5.39l-2.17,5.39H290.04z"/>
		<path class="st1" d="M298.46,79.46h4.76v13.06h8.03v3.78h-12.79V79.46z"/>
	</g>
	<g>
		<path class="st2" d="M94.42,30.89L66.46,96.51H49.59L31.42,52.72h18.51l8.75,22.69l18.79-44.52H94.42z"/>
	</g>
</g>
</svg>
